%YAML 1.1
%TAG !u! tag:unity3d.com,2011:
--- !u!114 &11400000
MonoBehaviour:
  m_ObjectHideFlags: 0
  m_PrefabParentObject: {fileID: 0}
  m_PrefabInternal: {fileID: 0}
  m_GameObject: {fileID: 0}
  m_Enabled: 1
  m_EditorHideFlags: 0
  m_Script: {fileID: 11500000, guid: 4e398d9a76116c744845a3fa510169f1, type: 3}
  m_Name: Map
  m_EditorClassIdentifier: 
  name: Peta
  icon: {fileID: 21300000, guid: cb8b6f4d1eb31924ab6197afcf56c4d4, type: 3}
  isDeaultItem: 0
  isTopeng: 0
