%YAML 1.1
%TAG !u! tag:unity3d.com,2011:
--- !u!114 &11400000
MonoBehaviour:
  m_ObjectHideFlags: 0
  m_PrefabParentObject: {fileID: 0}
  m_PrefabInternal: {fileID: 0}
  m_GameObject: {fileID: 0}
  m_Enabled: 1
  m_EditorHideFlags: 0
  m_Script: {fileID: 11500000, guid: 4e398d9a76116c744845a3fa510169f1, type: 3}
  m_Name: RamuanKuning
  m_EditorClassIdentifier: 
  name: Ramuan Jingga
  icon: {fileID: 21300018, guid: 5e9fe7778a337c54f8ed4444e191a914, type: 3}
  isDeaultItem: 0
  isTopeng: 0
