%YAML 1.1
%TAG !u! tag:unity3d.com,2011:
--- !u!114 &11400000
MonoBehaviour:
  m_ObjectHideFlags: 0
  m_PrefabParentObject: {fileID: 0}
  m_PrefabInternal: {fileID: 0}
  m_GameObject: {fileID: 0}
  m_Enabled: 1
  m_EditorHideFlags: 0
  m_Script: {fileID: 11500000, guid: 4e398d9a76116c744845a3fa510169f1, type: 3}
  m_Name: T_Pertama
  m_EditorClassIdentifier: 
  name: Topeng Dayak
  icon: {fileID: 21300048, guid: f279c211dc50bf241a7c03020c7e807c, type: 3}
  isDeaultItem: 0
  topengNum: 0
  isKunci: 0
  tangramNum: -5
